%YAML 1.1
%TAG !u! tag:unity3d.com,2011:
--- !u!114 &11400000
MonoBehaviour:
  m_ObjectHideFlags: 0
  m_PrefabParentObject: {fileID: 0}
  m_PrefabInternal: {fileID: 0}
  m_GameObject: {fileID: 0}
  m_Enabled: 1
  m_EditorHideFlags: 0
  m_Script: {fileID: 11500000, guid: 5897f6cc71df1e94fb59f4bfa4f99ab7, type: 3}
  m_Name: HatList
  m_EditorClassIdentifier: 
  _defaultHat: {fileID: 4300004, guid: 718aa91a01cda52409bbd634e0d4e7dc, type: 3}
  _defaultColor: {r: 1, g: 0, b: .794117928, a: 1}
  _playerHats: []
  _playerHatColors:
  - {r: .230882362, g: .342799902, b: .541379333, a: 1}
  - {r: .779411793, g: .448043197, b: .0286548268, a: 1}
  - {r: .171586052, g: .0567690246, b: .257352948, a: 1}
  - {r: .174442187, g: .316176474, b: .118566178, a: 1}
  _cpuHats:
  - {fileID: 4300004, guid: 718aa91a01cda52409bbd634e0d4e7dc, type: 3}
  - {fileID: 4300004, guid: 718aa91a01cda52409bbd634e0d4e7dc, type: 3}
  _cpuHatColors:
  - {r: .121568628, g: .125490203, b: .0980392173, a: 1}
  - {r: 0, g: 0, b: 0, a: 0}
